<svg class="icon-copy-code" viewBox="0 0 21 21" fill="none" xmlns="http://www.w3.org/2000/svg">
    <rect class="icon-rec" x="2.5" y="4.5271" width="14" height="14" rx="1" stroke="#040A2B" stroke-width="1" stroke-linecap="round" stroke-linejoin="round"/>
    <path class="icon-rec" d="M4.5 2.5271H17.5C18.0523 2.5271 18.5 2.97481 18.5 3.5271V16.5271" stroke="#040A2B" stroke-width="1" stroke-linecap="round" stroke-linejoin="round"/>
</svg>
